/pnfs/desy.de/atlas/dq2/atlaslocalgroupdisk/rucio/mc15_13TeV/e3/7f/EVNT.08958599._000001.pool.root.1 
/pnfs/desy.de/atlas/dq2/atlaslocalgroupdisk/rucio/mc15_13TeV/d0/31/EVNT.08958599._000002.pool.root.1 
/pnfs/desy.de/atlas/dq2/atlaslocalgroupdisk/rucio/mc15_13TeV/c3/53/EVNT.08958599._000003.pool.root.1 
/pnfs/desy.de/atlas/dq2/atlaslocalgroupdisk/rucio/mc15_13TeV/82/fe/EVNT.08958599._000004.pool.root.1 
/pnfs/desy.de/atlas/dq2/atlaslocalgroupdisk/rucio/mc15_13TeV/6f/ef/EVNT.08958599._000005.pool.root.1 
/pnfs/desy.de/atlas/dq2/atlaslocalgroupdisk/rucio/mc15_13TeV/a9/c4/EVNT.08958599._000006.pool.root.1 
/pnfs/desy.de/atlas/dq2/atlaslocalgroupdisk/rucio/mc15_13TeV/e0/98/EVNT.08958599._000007.pool.root.1 
/pnfs/desy.de/atlas/dq2/atlaslocalgroupdisk/rucio/mc15_13TeV/fc/2b/EVNT.08958599._000008.pool.root.1 
/pnfs/desy.de/atlas/dq2/atlaslocalgroupdisk/rucio/mc15_13TeV/fb/72/EVNT.08958599._000009.pool.root.1 
/pnfs/desy.de/atlas/dq2/atlaslocalgroupdisk/rucio/mc15_13TeV/21/b1/EVNT.08958599._000010.pool.root.1 
/pnfs/desy.de/atlas/dq2/atlaslocalgroupdisk/rucio/mc15_13TeV/5d/88/EVNT.08958599._001024.pool.root.1 
/pnfs/desy.de/atlas/dq2/atlaslocalgroupdisk/rucio/mc15_13TeV/a5/f8/EVNT.08958599._001025.pool.root.1 
/pnfs/desy.de/atlas/dq2/atlaslocalgroupdisk/rucio/mc15_13TeV/88/94/EVNT.08958599._001026.pool.root.1 
/pnfs/desy.de/atlas/dq2/atlaslocalgroupdisk/rucio/mc15_13TeV/f3/61/EVNT.08958599._001027.pool.root.1 
/pnfs/desy.de/atlas/dq2/atlaslocalgroupdisk/rucio/mc15_13TeV/d6/f6/EVNT.08958599._001028.pool.root.1 
/pnfs/desy.de/atlas/dq2/atlaslocalgroupdisk/rucio/mc15_13TeV/24/7b/EVNT.08958599._001029.pool.root.1 
/pnfs/desy.de/atlas/dq2/atlaslocalgroupdisk/rucio/mc15_13TeV/04/e3/EVNT.08958599._001030.pool.root.1 
/pnfs/desy.de/atlas/dq2/atlaslocalgroupdisk/rucio/mc15_13TeV/20/6a/EVNT.08958599._001031.pool.root.1 
/pnfs/desy.de/atlas/dq2/atlaslocalgroupdisk/rucio/mc15_13TeV/91/9c/EVNT.08958599._001032.pool.root.1 
/pnfs/desy.de/atlas/dq2/atlaslocalgroupdisk/rucio/mc15_13TeV/ed/23/EVNT.08958599._001033.pool.root.1 
/pnfs/desy.de/atlas/dq2/atlaslocalgroupdisk/rucio/mc15_13TeV/aa/3d/EVNT.08958599._001034.pool.root.1 
/pnfs/desy.de/atlas/dq2/atlaslocalgroupdisk/rucio/mc15_13TeV/d6/2f/EVNT.08958599._001035.pool.root.1 
/pnfs/desy.de/atlas/dq2/atlaslocalgroupdisk/rucio/mc15_13TeV/e1/f3/EVNT.08958599._001036.pool.root.1 
/pnfs/desy.de/atlas/dq2/atlaslocalgroupdisk/rucio/mc15_13TeV/02/30/EVNT.08958599._001037.pool.root.1 
/pnfs/desy.de/atlas/dq2/atlaslocalgroupdisk/rucio/mc15_13TeV/f2/ea/EVNT.08958599._001038.pool.root.1 
/pnfs/desy.de/atlas/dq2/atlaslocalgroupdisk/rucio/mc15_13TeV/ed/80/EVNT.08958599._001039.pool.root.1 
/pnfs/desy.de/atlas/dq2/atlaslocalgroupdisk/rucio/mc15_13TeV/d0/90/EVNT.08958599._001040.pool.root.1 
/pnfs/desy.de/atlas/dq2/atlaslocalgroupdisk/rucio/mc15_13TeV/49/5f/EVNT.08958599._001041.pool.root.1 
/pnfs/desy.de/atlas/dq2/atlaslocalgroupdisk/rucio/mc15_13TeV/5a/c9/EVNT.08958599._001042.pool.root.1 
/pnfs/desy.de/atlas/dq2/atlaslocalgroupdisk/rucio/mc15_13TeV/80/6f/EVNT.08958599._001043.pool.root.1 
/pnfs/desy.de/atlas/dq2/atlaslocalgroupdisk/rucio/mc15_13TeV/f1/18/EVNT.08958599._001044.pool.root.1 
/pnfs/desy.de/atlas/dq2/atlaslocalgroupdisk/rucio/mc15_13TeV/11/97/EVNT.08958599._001045.pool.root.1 
/pnfs/desy.de/atlas/dq2/atlaslocalgroupdisk/rucio/mc15_13TeV/82/17/EVNT.08958599._001046.pool.root.1 
/pnfs/desy.de/atlas/dq2/atlaslocalgroupdisk/rucio/mc15_13TeV/47/07/EVNT.08958599._001047.pool.root.1 
/pnfs/desy.de/atlas/dq2/atlaslocalgroupdisk/rucio/mc15_13TeV/4f/76/EVNT.08958599._001048.pool.root.1 
/pnfs/desy.de/atlas/dq2/atlaslocalgroupdisk/rucio/mc15_13TeV/8e/da/EVNT.08958599._001049.pool.root.1 
/pnfs/desy.de/atlas/dq2/atlaslocalgroupdisk/rucio/mc15_13TeV/0e/ee/EVNT.08958599._001050.pool.root.1 
/pnfs/desy.de/atlas/dq2/atlaslocalgroupdisk/rucio/mc15_13TeV/e2/94/EVNT.08958599._001051.pool.root.1 
/pnfs/desy.de/atlas/dq2/atlaslocalgroupdisk/rucio/mc15_13TeV/8c/5c/EVNT.08958599._001052.pool.root.1 
/pnfs/desy.de/atlas/dq2/atlaslocalgroupdisk/rucio/mc15_13TeV/3e/b6/EVNT.08958599._001053.pool.root.1 
/pnfs/desy.de/atlas/dq2/atlaslocalgroupdisk/rucio/mc15_13TeV/1d/51/EVNT.08958599._001054.pool.root.1 
/pnfs/desy.de/atlas/dq2/atlaslocalgroupdisk/rucio/mc15_13TeV/c6/c9/EVNT.08958599._001055.pool.root.1 
/pnfs/desy.de/atlas/dq2/atlaslocalgroupdisk/rucio/mc15_13TeV/73/72/EVNT.08958599._001056.pool.root.1 
/pnfs/desy.de/atlas/dq2/atlaslocalgroupdisk/rucio/mc15_13TeV/d7/78/EVNT.08958599._001057.pool.root.1 
/pnfs/desy.de/atlas/dq2/atlaslocalgroupdisk/rucio/mc15_13TeV/d2/fe/EVNT.08958599._001058.pool.root.1 
/pnfs/desy.de/atlas/dq2/atlaslocalgroupdisk/rucio/mc15_13TeV/d0/c5/EVNT.08958599._001059.pool.root.1 
/pnfs/desy.de/atlas/dq2/atlaslocalgroupdisk/rucio/mc15_13TeV/99/1e/EVNT.08958599._001060.pool.root.1 
/pnfs/desy.de/atlas/dq2/atlaslocalgroupdisk/rucio/mc15_13TeV/44/46/EVNT.08958599._001061.pool.root.1 
/pnfs/desy.de/atlas/dq2/atlaslocalgroupdisk/rucio/mc15_13TeV/9d/b2/EVNT.08958599._001062.pool.root.1 
/pnfs/desy.de/atlas/dq2/atlaslocalgroupdisk/rucio/mc15_13TeV/39/1a/EVNT.08958599._001063.pool.root.1 
/pnfs/desy.de/atlas/dq2/atlaslocalgroupdisk/rucio/mc15_13TeV/77/31/EVNT.08958599._001064.pool.root.1 
/pnfs/desy.de/atlas/dq2/atlaslocalgroupdisk/rucio/mc15_13TeV/8d/66/EVNT.08958599._001065.pool.root.1 
/pnfs/desy.de/atlas/dq2/atlaslocalgroupdisk/rucio/mc15_13TeV/5a/bd/EVNT.08958599._001066.pool.root.1 
/pnfs/desy.de/atlas/dq2/atlaslocalgroupdisk/rucio/mc15_13TeV/68/b1/EVNT.08958599._001067.pool.root.1 
/pnfs/desy.de/atlas/dq2/atlaslocalgroupdisk/rucio/mc15_13TeV/84/e6/EVNT.08958599._001068.pool.root.1 
/pnfs/desy.de/atlas/dq2/atlaslocalgroupdisk/rucio/mc15_13TeV/3f/33/EVNT.08958599._001069.pool.root.1 
/pnfs/desy.de/atlas/dq2/atlaslocalgroupdisk/rucio/mc15_13TeV/da/b7/EVNT.08958599._001070.pool.root.1 
/pnfs/desy.de/atlas/dq2/atlaslocalgroupdisk/rucio/mc15_13TeV/e9/fe/EVNT.08958599._001071.pool.root.1 
/pnfs/desy.de/atlas/dq2/atlaslocalgroupdisk/rucio/mc15_13TeV/24/09/EVNT.08958599._001072.pool.root.1 
/pnfs/desy.de/atlas/dq2/atlaslocalgroupdisk/rucio/mc15_13TeV/d0/b7/EVNT.08958599._001073.pool.root.1 
/pnfs/desy.de/atlas/dq2/atlaslocalgroupdisk/rucio/mc15_13TeV/70/99/EVNT.08958599._001074.pool.root.1 
/pnfs/desy.de/atlas/dq2/atlaslocalgroupdisk/rucio/mc15_13TeV/63/a3/EVNT.08958599._001075.pool.root.1 
/pnfs/desy.de/atlas/dq2/atlaslocalgroupdisk/rucio/mc15_13TeV/6d/55/EVNT.08958599._001076.pool.root.1 
/pnfs/desy.de/atlas/dq2/atlaslocalgroupdisk/rucio/mc15_13TeV/4a/33/EVNT.08958599._001077.pool.root.1 
/pnfs/desy.de/atlas/dq2/atlaslocalgroupdisk/rucio/mc15_13TeV/3e/29/EVNT.08958599._001078.pool.root.1 
/pnfs/desy.de/atlas/dq2/atlaslocalgroupdisk/rucio/mc15_13TeV/af/4b/EVNT.08958599._001079.pool.root.1 
/pnfs/desy.de/atlas/dq2/atlaslocalgroupdisk/rucio/mc15_13TeV/7a/f9/EVNT.08958599._001080.pool.root.1 
/pnfs/desy.de/atlas/dq2/atlaslocalgroupdisk/rucio/mc15_13TeV/d8/54/EVNT.08958599._001081.pool.root.1 
/pnfs/desy.de/atlas/dq2/atlaslocalgroupdisk/rucio/mc15_13TeV/e7/b3/EVNT.08958599._001082.pool.root.1 
/pnfs/desy.de/atlas/dq2/atlaslocalgroupdisk/rucio/mc15_13TeV/ec/25/EVNT.08958599._001083.pool.root.1 
/pnfs/desy.de/atlas/dq2/atlaslocalgroupdisk/rucio/mc15_13TeV/28/9a/EVNT.08958599._001084.pool.root.1 
/pnfs/desy.de/atlas/dq2/atlaslocalgroupdisk/rucio/mc15_13TeV/9c/30/EVNT.08958599._001085.pool.root.1 
/pnfs/desy.de/atlas/dq2/atlaslocalgroupdisk/rucio/mc15_13TeV/4a/b8/EVNT.08958599._001086.pool.root.1 
/pnfs/desy.de/atlas/dq2/atlaslocalgroupdisk/rucio/mc15_13TeV/e7/cb/EVNT.08958599._001087.pool.root.1 
/pnfs/desy.de/atlas/dq2/atlaslocalgroupdisk/rucio/mc15_13TeV/f6/53/EVNT.08958599._001088.pool.root.1 
/pnfs/desy.de/atlas/dq2/atlaslocalgroupdisk/rucio/mc15_13TeV/b2/97/EVNT.08958599._001089.pool.root.1 
/pnfs/desy.de/atlas/dq2/atlaslocalgroupdisk/rucio/mc15_13TeV/a9/ac/EVNT.08958599._001090.pool.root.1 
/pnfs/desy.de/atlas/dq2/atlaslocalgroupdisk/rucio/mc15_13TeV/b7/e6/EVNT.08958599._001091.pool.root.1 
/pnfs/desy.de/atlas/dq2/atlaslocalgroupdisk/rucio/mc15_13TeV/a2/46/EVNT.08958599._001092.pool.root.1 
/pnfs/desy.de/atlas/dq2/atlaslocalgroupdisk/rucio/mc15_13TeV/24/e4/EVNT.08958599._001093.pool.root.1 
/pnfs/desy.de/atlas/dq2/atlaslocalgroupdisk/rucio/mc15_13TeV/33/4b/EVNT.08958599._001094.pool.root.1 
/pnfs/desy.de/atlas/dq2/atlaslocalgroupdisk/rucio/mc15_13TeV/37/65/EVNT.08958599._001095.pool.root.1 
/pnfs/desy.de/atlas/dq2/atlaslocalgroupdisk/rucio/mc15_13TeV/91/2c/EVNT.08958599._001096.pool.root.1 
/pnfs/desy.de/atlas/dq2/atlaslocalgroupdisk/rucio/mc15_13TeV/7c/26/EVNT.08958599._001097.pool.root.1 
/pnfs/desy.de/atlas/dq2/atlaslocalgroupdisk/rucio/mc15_13TeV/db/3d/EVNT.08958599._001098.pool.root.1 
/pnfs/desy.de/atlas/dq2/atlaslocalgroupdisk/rucio/mc15_13TeV/df/db/EVNT.08958599._001099.pool.root.1 
/pnfs/desy.de/atlas/dq2/atlaslocalgroupdisk/rucio/mc15_13TeV/cf/b8/EVNT.08958599._001100.pool.root.1 
/pnfs/desy.de/atlas/dq2/atlaslocalgroupdisk/rucio/mc15_13TeV/90/c0/EVNT.08958599._001101.pool.root.1 
/pnfs/desy.de/atlas/dq2/atlaslocalgroupdisk/rucio/mc15_13TeV/61/1a/EVNT.08958599._001102.pool.root.1 
/pnfs/desy.de/atlas/dq2/atlaslocalgroupdisk/rucio/mc15_13TeV/e8/74/EVNT.08958599._001103.pool.root.1 
/pnfs/desy.de/atlas/dq2/atlaslocalgroupdisk/rucio/mc15_13TeV/b6/20/EVNT.08958599._001104.pool.root.1 
/pnfs/desy.de/atlas/dq2/atlaslocalgroupdisk/rucio/mc15_13TeV/42/2d/EVNT.08958599._001105.pool.root.1 
/pnfs/desy.de/atlas/dq2/atlaslocalgroupdisk/rucio/mc15_13TeV/f0/5a/EVNT.08958599._001106.pool.root.1 
/pnfs/desy.de/atlas/dq2/atlaslocalgroupdisk/rucio/mc15_13TeV/24/2b/EVNT.08958599._001107.pool.root.1 
/pnfs/desy.de/atlas/dq2/atlaslocalgroupdisk/rucio/mc15_13TeV/21/69/EVNT.08958599._001108.pool.root.1 
/pnfs/desy.de/atlas/dq2/atlaslocalgroupdisk/rucio/mc15_13TeV/66/55/EVNT.08958599._001109.pool.root.1 
/pnfs/desy.de/atlas/dq2/atlaslocalgroupdisk/rucio/mc15_13TeV/60/6d/EVNT.08958599._001110.pool.root.1 
/pnfs/desy.de/atlas/dq2/atlaslocalgroupdisk/rucio/mc15_13TeV/92/21/EVNT.08958599._001111.pool.root.1 
/pnfs/desy.de/atlas/dq2/atlaslocalgroupdisk/rucio/mc15_13TeV/b7/81/EVNT.08958599._001112.pool.root.1 
/pnfs/desy.de/atlas/dq2/atlaslocalgroupdisk/rucio/mc15_13TeV/53/1a/EVNT.08958599._001113.pool.root.1 
/pnfs/desy.de/atlas/dq2/atlaslocalgroupdisk/rucio/mc15_13TeV/cb/b2/EVNT.08958599._001114.pool.root.1 
/pnfs/desy.de/atlas/dq2/atlaslocalgroupdisk/rucio/mc15_13TeV/d3/7e/EVNT.08958599._001115.pool.root.1 
/pnfs/desy.de/atlas/dq2/atlaslocalgroupdisk/rucio/mc15_13TeV/7d/1d/EVNT.08958599._001116.pool.root.1 
/pnfs/desy.de/atlas/dq2/atlaslocalgroupdisk/rucio/mc15_13TeV/95/6f/EVNT.08958599._001117.pool.root.1 
/pnfs/desy.de/atlas/dq2/atlaslocalgroupdisk/rucio/mc15_13TeV/1b/f1/EVNT.08958599._001118.pool.root.1 
/pnfs/desy.de/atlas/dq2/atlaslocalgroupdisk/rucio/mc15_13TeV/58/6c/EVNT.08958599._001119.pool.root.1 
/pnfs/desy.de/atlas/dq2/atlaslocalgroupdisk/rucio/mc15_13TeV/70/84/EVNT.08958599._001120.pool.root.1 
/pnfs/desy.de/atlas/dq2/atlaslocalgroupdisk/rucio/mc15_13TeV/de/01/EVNT.08958599._001121.pool.root.1 
/pnfs/desy.de/atlas/dq2/atlaslocalgroupdisk/rucio/mc15_13TeV/3a/04/EVNT.08958599._001122.pool.root.1 
/pnfs/desy.de/atlas/dq2/atlaslocalgroupdisk/rucio/mc15_13TeV/4e/f3/EVNT.08958599._001123.pool.root.1 
/pnfs/desy.de/atlas/dq2/atlaslocalgroupdisk/rucio/mc15_13TeV/e0/f3/EVNT.08958599._001124.pool.root.1 
/pnfs/desy.de/atlas/dq2/atlaslocalgroupdisk/rucio/mc15_13TeV/b3/bf/EVNT.08958599._001125.pool.root.1 
/pnfs/desy.de/atlas/dq2/atlaslocalgroupdisk/rucio/mc15_13TeV/c0/e5/EVNT.08958599._001126.pool.root.1 
/pnfs/desy.de/atlas/dq2/atlaslocalgroupdisk/rucio/mc15_13TeV/2d/25/EVNT.08958599._001127.pool.root.1 
/pnfs/desy.de/atlas/dq2/atlaslocalgroupdisk/rucio/mc15_13TeV/e4/23/EVNT.08958599._001128.pool.root.1 
/pnfs/desy.de/atlas/dq2/atlaslocalgroupdisk/rucio/mc15_13TeV/e4/9d/EVNT.08958599._001129.pool.root.1 
/pnfs/desy.de/atlas/dq2/atlaslocalgroupdisk/rucio/mc15_13TeV/ad/fe/EVNT.08958599._001130.pool.root.1 
/pnfs/desy.de/atlas/dq2/atlaslocalgroupdisk/rucio/mc15_13TeV/4d/40/EVNT.08958599._001131.pool.root.1 
/pnfs/desy.de/atlas/dq2/atlaslocalgroupdisk/rucio/mc15_13TeV/fd/08/EVNT.08958599._001132.pool.root.1 
/pnfs/desy.de/atlas/dq2/atlaslocalgroupdisk/rucio/mc15_13TeV/74/5b/EVNT.08958599._001133.pool.root.1 
/pnfs/desy.de/atlas/dq2/atlaslocalgroupdisk/rucio/mc15_13TeV/e5/02/EVNT.08958599._001134.pool.root.1 
/pnfs/desy.de/atlas/dq2/atlaslocalgroupdisk/rucio/mc15_13TeV/3c/76/EVNT.08958599._001135.pool.root.1 
/pnfs/desy.de/atlas/dq2/atlaslocalgroupdisk/rucio/mc15_13TeV/f1/4e/EVNT.08958599._001136.pool.root.1 
/pnfs/desy.de/atlas/dq2/atlaslocalgroupdisk/rucio/mc15_13TeV/37/12/EVNT.08958599._001137.pool.root.1 
/pnfs/desy.de/atlas/dq2/atlaslocalgroupdisk/rucio/mc15_13TeV/b9/73/EVNT.08958599._001138.pool.root.1 
/pnfs/desy.de/atlas/dq2/atlaslocalgroupdisk/rucio/mc15_13TeV/f4/f8/EVNT.08958599._001139.pool.root.1 
/pnfs/desy.de/atlas/dq2/atlaslocalgroupdisk/rucio/mc15_13TeV/a5/03/EVNT.08958599._001140.pool.root.1 
/pnfs/desy.de/atlas/dq2/atlaslocalgroupdisk/rucio/mc15_13TeV/50/29/EVNT.08958599._001141.pool.root.1 
/pnfs/desy.de/atlas/dq2/atlaslocalgroupdisk/rucio/mc15_13TeV/8a/02/EVNT.08958599._001142.pool.root.1 
/pnfs/desy.de/atlas/dq2/atlaslocalgroupdisk/rucio/mc15_13TeV/47/72/EVNT.08958599._001143.pool.root.1 
/pnfs/desy.de/atlas/dq2/atlaslocalgroupdisk/rucio/mc15_13TeV/69/7d/EVNT.08958599._001144.pool.root.1 
/pnfs/desy.de/atlas/dq2/atlaslocalgroupdisk/rucio/mc15_13TeV/b1/7b/EVNT.08958599._001145.pool.root.1 
/pnfs/desy.de/atlas/dq2/atlaslocalgroupdisk/rucio/mc15_13TeV/08/33/EVNT.08958599._001146.pool.root.1 
/pnfs/desy.de/atlas/dq2/atlaslocalgroupdisk/rucio/mc15_13TeV/2f/29/EVNT.08958599._001147.pool.root.1 
/pnfs/desy.de/atlas/dq2/atlaslocalgroupdisk/rucio/mc15_13TeV/13/78/EVNT.08958599._001148.pool.root.1 
/pnfs/desy.de/atlas/dq2/atlaslocalgroupdisk/rucio/mc15_13TeV/df/38/EVNT.08958599._001150.pool.root.1 
/pnfs/desy.de/atlas/dq2/atlaslocalgroupdisk/rucio/mc15_13TeV/bf/35/EVNT.08958599._001151.pool.root.1 
/pnfs/desy.de/atlas/dq2/atlaslocalgroupdisk/rucio/mc15_13TeV/e5/9b/EVNT.08958599._001152.pool.root.1 
/pnfs/desy.de/atlas/dq2/atlaslocalgroupdisk/rucio/mc15_13TeV/83/9f/EVNT.08958599._001153.pool.root.1 
/pnfs/desy.de/atlas/dq2/atlaslocalgroupdisk/rucio/mc15_13TeV/9c/84/EVNT.08958599._001154.pool.root.1 
/pnfs/desy.de/atlas/dq2/atlaslocalgroupdisk/rucio/mc15_13TeV/99/71/EVNT.08958599._001155.pool.root.1 
/pnfs/desy.de/atlas/dq2/atlaslocalgroupdisk/rucio/mc15_13TeV/76/ff/EVNT.08958599._001156.pool.root.1 
/pnfs/desy.de/atlas/dq2/atlaslocalgroupdisk/rucio/mc15_13TeV/d2/a7/EVNT.08958599._001157.pool.root.1 
/pnfs/desy.de/atlas/dq2/atlaslocalgroupdisk/rucio/mc15_13TeV/ea/ed/EVNT.08958599._001158.pool.root.1 
/pnfs/desy.de/atlas/dq2/atlaslocalgroupdisk/rucio/mc15_13TeV/a7/05/EVNT.08958599._001159.pool.root.1 
/pnfs/desy.de/atlas/dq2/atlaslocalgroupdisk/rucio/mc15_13TeV/5e/10/EVNT.08958599._001160.pool.root.1 
/pnfs/desy.de/atlas/dq2/atlaslocalgroupdisk/rucio/mc15_13TeV/7d/79/EVNT.08958599._001161.pool.root.1 
/pnfs/desy.de/atlas/dq2/atlaslocalgroupdisk/rucio/mc15_13TeV/8a/85/EVNT.08958599._001162.pool.root.1 
/pnfs/desy.de/atlas/dq2/atlaslocalgroupdisk/rucio/mc15_13TeV/95/68/EVNT.08958599._001163.pool.root.1 
/pnfs/desy.de/atlas/dq2/atlaslocalgroupdisk/rucio/mc15_13TeV/2e/9f/EVNT.08958599._001164.pool.root.1 
/pnfs/desy.de/atlas/dq2/atlaslocalgroupdisk/rucio/mc15_13TeV/8f/2b/EVNT.08958599._001165.pool.root.1 
/pnfs/desy.de/atlas/dq2/atlaslocalgroupdisk/rucio/mc15_13TeV/c5/93/EVNT.08958599._001166.pool.root.1 
/pnfs/desy.de/atlas/dq2/atlaslocalgroupdisk/rucio/mc15_13TeV/44/a1/EVNT.08958599._001167.pool.root.1 
/pnfs/desy.de/atlas/dq2/atlaslocalgroupdisk/rucio/mc15_13TeV/2d/0b/EVNT.08958599._001168.pool.root.1 
/pnfs/desy.de/atlas/dq2/atlaslocalgroupdisk/rucio/mc15_13TeV/70/73/EVNT.08958599._001169.pool.root.1 
/pnfs/desy.de/atlas/dq2/atlaslocalgroupdisk/rucio/mc15_13TeV/23/f4/EVNT.08958599._001170.pool.root.1 
/pnfs/desy.de/atlas/dq2/atlaslocalgroupdisk/rucio/mc15_13TeV/5f/82/EVNT.08958599._001171.pool.root.1 
/pnfs/desy.de/atlas/dq2/atlaslocalgroupdisk/rucio/mc15_13TeV/7c/06/EVNT.08958599._001172.pool.root.1 
/pnfs/desy.de/atlas/dq2/atlaslocalgroupdisk/rucio/mc15_13TeV/9f/02/EVNT.08958599._001173.pool.root.1 
/pnfs/desy.de/atlas/dq2/atlaslocalgroupdisk/rucio/mc15_13TeV/65/c6/EVNT.08958599._001174.pool.root.1 
/pnfs/desy.de/atlas/dq2/atlaslocalgroupdisk/rucio/mc15_13TeV/4e/4e/EVNT.08958599._001175.pool.root.1 
/pnfs/desy.de/atlas/dq2/atlaslocalgroupdisk/rucio/mc15_13TeV/5d/c9/EVNT.08958599._001176.pool.root.1 
/pnfs/desy.de/atlas/dq2/atlaslocalgroupdisk/rucio/mc15_13TeV/e2/a8/EVNT.08958599._001177.pool.root.1 
/pnfs/desy.de/atlas/dq2/atlaslocalgroupdisk/rucio/mc15_13TeV/10/84/EVNT.08958599._001178.pool.root.1 
/pnfs/desy.de/atlas/dq2/atlaslocalgroupdisk/rucio/mc15_13TeV/0a/c5/EVNT.08958599._001179.pool.root.1 
/pnfs/desy.de/atlas/dq2/atlaslocalgroupdisk/rucio/mc15_13TeV/da/91/EVNT.08958599._001180.pool.root.1 
/pnfs/desy.de/atlas/dq2/atlaslocalgroupdisk/rucio/mc15_13TeV/bc/da/EVNT.08958599._001181.pool.root.1 
/pnfs/desy.de/atlas/dq2/atlaslocalgroupdisk/rucio/mc15_13TeV/f8/9d/EVNT.08958599._001182.pool.root.1 
/pnfs/desy.de/atlas/dq2/atlaslocalgroupdisk/rucio/mc15_13TeV/a8/4e/EVNT.08958599._001183.pool.root.1 
/pnfs/desy.de/atlas/dq2/atlaslocalgroupdisk/rucio/mc15_13TeV/a5/88/EVNT.08958599._001184.pool.root.1 
/pnfs/desy.de/atlas/dq2/atlaslocalgroupdisk/rucio/mc15_13TeV/04/11/EVNT.08958599._001185.pool.root.1 
/pnfs/desy.de/atlas/dq2/atlaslocalgroupdisk/rucio/mc15_13TeV/eb/94/EVNT.08958599._001186.pool.root.1 
/pnfs/desy.de/atlas/dq2/atlaslocalgroupdisk/rucio/mc15_13TeV/0e/c7/EVNT.08958599._001188.pool.root.1 
/pnfs/desy.de/atlas/dq2/atlaslocalgroupdisk/rucio/mc15_13TeV/46/2f/EVNT.08958599._001189.pool.root.1 
/pnfs/desy.de/atlas/dq2/atlaslocalgroupdisk/rucio/mc15_13TeV/55/17/EVNT.08958599._001190.pool.root.1 
/pnfs/desy.de/atlas/dq2/atlaslocalgroupdisk/rucio/mc15_13TeV/06/dc/EVNT.08958599._001191.pool.root.1 
/pnfs/desy.de/atlas/dq2/atlaslocalgroupdisk/rucio/mc15_13TeV/05/41/EVNT.08958599._001192.pool.root.1 
/pnfs/desy.de/atlas/dq2/atlaslocalgroupdisk/rucio/mc15_13TeV/b7/65/EVNT.08958599._001193.pool.root.1 
/pnfs/desy.de/atlas/dq2/atlaslocalgroupdisk/rucio/mc15_13TeV/98/0d/EVNT.08958599._001194.pool.root.1 
/pnfs/desy.de/atlas/dq2/atlaslocalgroupdisk/rucio/mc15_13TeV/db/11/EVNT.08958599._001195.pool.root.1 
/pnfs/desy.de/atlas/dq2/atlaslocalgroupdisk/rucio/mc15_13TeV/2e/91/EVNT.08958599._001196.pool.root.1 
/pnfs/desy.de/atlas/dq2/atlaslocalgroupdisk/rucio/mc15_13TeV/a1/de/EVNT.08958599._001197.pool.root.1 
/pnfs/desy.de/atlas/dq2/atlaslocalgroupdisk/rucio/mc15_13TeV/75/0e/EVNT.08958599._001198.pool.root.1 
/pnfs/desy.de/atlas/dq2/atlaslocalgroupdisk/rucio/mc15_13TeV/fa/b0/EVNT.08958599._001199.pool.root.1 
/pnfs/desy.de/atlas/dq2/atlaslocalgroupdisk/rucio/mc15_13TeV/12/da/EVNT.08958599._001200.pool.root.1 
/pnfs/desy.de/atlas/dq2/atlaslocalgroupdisk/rucio/mc15_13TeV/4f/0a/EVNT.08958599._001201.pool.root.1 
/pnfs/desy.de/atlas/dq2/atlaslocalgroupdisk/rucio/mc15_13TeV/67/28/EVNT.08958599._001202.pool.root.1 
/pnfs/desy.de/atlas/dq2/atlaslocalgroupdisk/rucio/mc15_13TeV/45/b7/EVNT.08958599._001203.pool.root.1 
/pnfs/desy.de/atlas/dq2/atlaslocalgroupdisk/rucio/mc15_13TeV/57/dd/EVNT.08958599._001204.pool.root.1 
/pnfs/desy.de/atlas/dq2/atlaslocalgroupdisk/rucio/mc15_13TeV/c3/f2/EVNT.08958599._001205.pool.root.1 
/pnfs/desy.de/atlas/dq2/atlaslocalgroupdisk/rucio/mc15_13TeV/00/57/EVNT.08958599._001206.pool.root.1 
/pnfs/desy.de/atlas/dq2/atlaslocalgroupdisk/rucio/mc15_13TeV/49/f9/EVNT.08958599._001207.pool.root.1 
/pnfs/desy.de/atlas/dq2/atlaslocalgroupdisk/rucio/mc15_13TeV/39/26/EVNT.08958599._001208.pool.root.1 
/pnfs/desy.de/atlas/dq2/atlaslocalgroupdisk/rucio/mc15_13TeV/f9/1d/EVNT.08958599._001209.pool.root.1 
/pnfs/desy.de/atlas/dq2/atlaslocalgroupdisk/rucio/mc15_13TeV/fe/23/EVNT.08958599._001210.pool.root.1 
/pnfs/desy.de/atlas/dq2/atlaslocalgroupdisk/rucio/mc15_13TeV/90/fa/EVNT.08958599._001211.pool.root.1 
/pnfs/desy.de/atlas/dq2/atlaslocalgroupdisk/rucio/mc15_13TeV/20/23/EVNT.08958599._001212.pool.root.1 
/pnfs/desy.de/atlas/dq2/atlaslocalgroupdisk/rucio/mc15_13TeV/6f/e9/EVNT.08958599._001213.pool.root.1 
/pnfs/desy.de/atlas/dq2/atlaslocalgroupdisk/rucio/mc15_13TeV/ea/55/EVNT.08958599._001214.pool.root.1 
/pnfs/desy.de/atlas/dq2/atlaslocalgroupdisk/rucio/mc15_13TeV/be/b7/EVNT.08958599._001215.pool.root.1 
