/pnfs/desy.de/atlas/dq2/atlaslocalgroupdisk/rucio/mc15_13TeV/17/b1/EVNT.08958601._000001.pool.root.1 
/pnfs/desy.de/atlas/dq2/atlaslocalgroupdisk/rucio/mc15_13TeV/3b/91/EVNT.08958601._000002.pool.root.1 
/pnfs/desy.de/atlas/dq2/atlaslocalgroupdisk/rucio/mc15_13TeV/2e/d6/EVNT.08958601._000003.pool.root.1 
/pnfs/desy.de/atlas/dq2/atlaslocalgroupdisk/rucio/mc15_13TeV/a2/59/EVNT.08958601._000004.pool.root.1 
/pnfs/desy.de/atlas/dq2/atlaslocalgroupdisk/rucio/mc15_13TeV/03/98/EVNT.08958601._000005.pool.root.1 
/pnfs/desy.de/atlas/dq2/atlaslocalgroupdisk/rucio/mc15_13TeV/08/22/EVNT.08958601._000006.pool.root.1 
/pnfs/desy.de/atlas/dq2/atlaslocalgroupdisk/rucio/mc15_13TeV/4d/3e/EVNT.08958601._000007.pool.root.1 
/pnfs/desy.de/atlas/dq2/atlaslocalgroupdisk/rucio/mc15_13TeV/38/a1/EVNT.08958601._000008.pool.root.1 
/pnfs/desy.de/atlas/dq2/atlaslocalgroupdisk/rucio/mc15_13TeV/77/e2/EVNT.08958601._000009.pool.root.1 
/pnfs/desy.de/atlas/dq2/atlaslocalgroupdisk/rucio/mc15_13TeV/03/70/EVNT.08958601._000010.pool.root.1 
/pnfs/desy.de/atlas/dq2/atlaslocalgroupdisk/rucio/mc15_13TeV/02/3c/EVNT.08958601._000011.pool.root.1 
/pnfs/desy.de/atlas/dq2/atlaslocalgroupdisk/rucio/mc15_13TeV/6d/b5/EVNT.08958601._000012.pool.root.1 
/pnfs/desy.de/atlas/dq2/atlaslocalgroupdisk/rucio/mc15_13TeV/65/a7/EVNT.08958601._000013.pool.root.1 
/pnfs/desy.de/atlas/dq2/atlaslocalgroupdisk/rucio/mc15_13TeV/75/cc/EVNT.08958601._000014.pool.root.1 
/pnfs/desy.de/atlas/dq2/atlaslocalgroupdisk/rucio/mc15_13TeV/09/e8/EVNT.08958601._000015.pool.root.1 
/pnfs/desy.de/atlas/dq2/atlaslocalgroupdisk/rucio/mc15_13TeV/a8/e5/EVNT.08958601._000016.pool.root.1 
/pnfs/desy.de/atlas/dq2/atlaslocalgroupdisk/rucio/mc15_13TeV/95/0b/EVNT.08958601._000017.pool.root.1 
/pnfs/desy.de/atlas/dq2/atlaslocalgroupdisk/rucio/mc15_13TeV/4f/cd/EVNT.08958601._000018.pool.root.1 
/pnfs/desy.de/atlas/dq2/atlaslocalgroupdisk/rucio/mc15_13TeV/c9/6c/EVNT.08958601._000019.pool.root.1 
/pnfs/desy.de/atlas/dq2/atlaslocalgroupdisk/rucio/mc15_13TeV/d4/87/EVNT.08958601._000020.pool.root.1 
/pnfs/desy.de/atlas/dq2/atlaslocalgroupdisk/rucio/mc15_13TeV/4f/4d/EVNT.08958601._000021.pool.root.1 
/pnfs/desy.de/atlas/dq2/atlaslocalgroupdisk/rucio/mc15_13TeV/59/4e/EVNT.08958601._000022.pool.root.1 
/pnfs/desy.de/atlas/dq2/atlaslocalgroupdisk/rucio/mc15_13TeV/60/8e/EVNT.08958601._000023.pool.root.1 
/pnfs/desy.de/atlas/dq2/atlaslocalgroupdisk/rucio/mc15_13TeV/95/ab/EVNT.08958601._000024.pool.root.1 
/pnfs/desy.de/atlas/dq2/atlaslocalgroupdisk/rucio/mc15_13TeV/ae/44/EVNT.08958601._000025.pool.root.1 
/pnfs/desy.de/atlas/dq2/atlaslocalgroupdisk/rucio/mc15_13TeV/10/19/EVNT.08958601._000026.pool.root.1 
/pnfs/desy.de/atlas/dq2/atlaslocalgroupdisk/rucio/mc15_13TeV/f2/95/EVNT.08958601._000027.pool.root.1 
/pnfs/desy.de/atlas/dq2/atlaslocalgroupdisk/rucio/mc15_13TeV/e9/d5/EVNT.08958601._000028.pool.root.1 
/pnfs/desy.de/atlas/dq2/atlaslocalgroupdisk/rucio/mc15_13TeV/ae/21/EVNT.08958601._000029.pool.root.1 
/pnfs/desy.de/atlas/dq2/atlaslocalgroupdisk/rucio/mc15_13TeV/e6/53/EVNT.08958601._000030.pool.root.1 
/pnfs/desy.de/atlas/dq2/atlaslocalgroupdisk/rucio/mc15_13TeV/79/ff/EVNT.08958601._000031.pool.root.1 
/pnfs/desy.de/atlas/dq2/atlaslocalgroupdisk/rucio/mc15_13TeV/59/54/EVNT.08958601._000032.pool.root.1 
/pnfs/desy.de/atlas/dq2/atlaslocalgroupdisk/rucio/mc15_13TeV/0b/f8/EVNT.08958601._000033.pool.root.1 
/pnfs/desy.de/atlas/dq2/atlaslocalgroupdisk/rucio/mc15_13TeV/27/ee/EVNT.08958601._000034.pool.root.1 
/pnfs/desy.de/atlas/dq2/atlaslocalgroupdisk/rucio/mc15_13TeV/de/64/EVNT.08958601._000035.pool.root.1 
/pnfs/desy.de/atlas/dq2/atlaslocalgroupdisk/rucio/mc15_13TeV/da/b8/EVNT.08958601._000036.pool.root.1 
/pnfs/desy.de/atlas/dq2/atlaslocalgroupdisk/rucio/mc15_13TeV/ec/05/EVNT.08958601._000037.pool.root.1 
/pnfs/desy.de/atlas/dq2/atlaslocalgroupdisk/rucio/mc15_13TeV/96/c0/EVNT.08958601._000038.pool.root.1 
/pnfs/desy.de/atlas/dq2/atlaslocalgroupdisk/rucio/mc15_13TeV/b8/c8/EVNT.08958601._000039.pool.root.1 
/pnfs/desy.de/atlas/dq2/atlaslocalgroupdisk/rucio/mc15_13TeV/5d/f7/EVNT.08958601._000040.pool.root.1 
/pnfs/desy.de/atlas/dq2/atlaslocalgroupdisk/rucio/mc15_13TeV/8b/84/EVNT.08958601._000041.pool.root.1 
/pnfs/desy.de/atlas/dq2/atlaslocalgroupdisk/rucio/mc15_13TeV/b0/c3/EVNT.08958601._000042.pool.root.1 
/pnfs/desy.de/atlas/dq2/atlaslocalgroupdisk/rucio/mc15_13TeV/30/df/EVNT.08958601._000043.pool.root.1 
/pnfs/desy.de/atlas/dq2/atlaslocalgroupdisk/rucio/mc15_13TeV/b0/81/EVNT.08958601._000044.pool.root.1 
/pnfs/desy.de/atlas/dq2/atlaslocalgroupdisk/rucio/mc15_13TeV/61/ff/EVNT.08958601._000045.pool.root.1 
/pnfs/desy.de/atlas/dq2/atlaslocalgroupdisk/rucio/mc15_13TeV/cc/1c/EVNT.08958601._000046.pool.root.1 
/pnfs/desy.de/atlas/dq2/atlaslocalgroupdisk/rucio/mc15_13TeV/89/d2/EVNT.08958601._000047.pool.root.1 
/pnfs/desy.de/atlas/dq2/atlaslocalgroupdisk/rucio/mc15_13TeV/b8/5f/EVNT.08958601._000048.pool.root.1 
/pnfs/desy.de/atlas/dq2/atlaslocalgroupdisk/rucio/mc15_13TeV/25/6f/EVNT.08958601._000049.pool.root.1 
/pnfs/desy.de/atlas/dq2/atlaslocalgroupdisk/rucio/mc15_13TeV/67/58/EVNT.08958601._000050.pool.root.1 
/pnfs/desy.de/atlas/dq2/atlaslocalgroupdisk/rucio/mc15_13TeV/d0/58/EVNT.08958601._000051.pool.root.1 
/pnfs/desy.de/atlas/dq2/atlaslocalgroupdisk/rucio/mc15_13TeV/71/9e/EVNT.08958601._000052.pool.root.1 
/pnfs/desy.de/atlas/dq2/atlaslocalgroupdisk/rucio/mc15_13TeV/42/bf/EVNT.08958601._000053.pool.root.1 
/pnfs/desy.de/atlas/dq2/atlaslocalgroupdisk/rucio/mc15_13TeV/d2/73/EVNT.08958601._000054.pool.root.1 
/pnfs/desy.de/atlas/dq2/atlaslocalgroupdisk/rucio/mc15_13TeV/72/60/EVNT.08958601._000055.pool.root.1 
/pnfs/desy.de/atlas/dq2/atlaslocalgroupdisk/rucio/mc15_13TeV/04/40/EVNT.08958601._000056.pool.root.1 
/pnfs/desy.de/atlas/dq2/atlaslocalgroupdisk/rucio/mc15_13TeV/4f/6e/EVNT.08958601._000057.pool.root.1 
/pnfs/desy.de/atlas/dq2/atlaslocalgroupdisk/rucio/mc15_13TeV/97/5f/EVNT.08958601._000058.pool.root.1 
/pnfs/desy.de/atlas/dq2/atlaslocalgroupdisk/rucio/mc15_13TeV/ac/ac/EVNT.08958601._000059.pool.root.1 
/pnfs/desy.de/atlas/dq2/atlaslocalgroupdisk/rucio/mc15_13TeV/56/7a/EVNT.08958601._000061.pool.root.1 
/pnfs/desy.de/atlas/dq2/atlaslocalgroupdisk/rucio/mc15_13TeV/67/a2/EVNT.08958601._000062.pool.root.1 
/pnfs/desy.de/atlas/dq2/atlaslocalgroupdisk/rucio/mc15_13TeV/69/d9/EVNT.08958601._000063.pool.root.1 
/pnfs/desy.de/atlas/dq2/atlaslocalgroupdisk/rucio/mc15_13TeV/3f/48/EVNT.08958601._000064.pool.root.1 
/pnfs/desy.de/atlas/dq2/atlaslocalgroupdisk/rucio/mc15_13TeV/fe/df/EVNT.08958601._000065.pool.root.1 
/pnfs/desy.de/atlas/dq2/atlaslocalgroupdisk/rucio/mc15_13TeV/53/5b/EVNT.08958601._000066.pool.root.1 
/pnfs/desy.de/atlas/dq2/atlaslocalgroupdisk/rucio/mc15_13TeV/c9/3b/EVNT.08958601._000067.pool.root.1 
/pnfs/desy.de/atlas/dq2/atlaslocalgroupdisk/rucio/mc15_13TeV/2b/9d/EVNT.08958601._000068.pool.root.1 
/pnfs/desy.de/atlas/dq2/atlaslocalgroupdisk/rucio/mc15_13TeV/fd/46/EVNT.08958601._000069.pool.root.1 
/pnfs/desy.de/atlas/dq2/atlaslocalgroupdisk/rucio/mc15_13TeV/97/d0/EVNT.08958601._000070.pool.root.1 
/pnfs/desy.de/atlas/dq2/atlaslocalgroupdisk/rucio/mc15_13TeV/3a/00/EVNT.08958601._000071.pool.root.1 
/pnfs/desy.de/atlas/dq2/atlaslocalgroupdisk/rucio/mc15_13TeV/0a/b0/EVNT.08958601._000072.pool.root.1 
/pnfs/desy.de/atlas/dq2/atlaslocalgroupdisk/rucio/mc15_13TeV/46/13/EVNT.08958601._000073.pool.root.1 
/pnfs/desy.de/atlas/dq2/atlaslocalgroupdisk/rucio/mc15_13TeV/c2/22/EVNT.08958601._000074.pool.root.1 
/pnfs/desy.de/atlas/dq2/atlaslocalgroupdisk/rucio/mc15_13TeV/4a/29/EVNT.08958601._000075.pool.root.1 
/pnfs/desy.de/atlas/dq2/atlaslocalgroupdisk/rucio/mc15_13TeV/eb/43/EVNT.08958601._000076.pool.root.1 
/pnfs/desy.de/atlas/dq2/atlaslocalgroupdisk/rucio/mc15_13TeV/a0/cf/EVNT.08958601._000077.pool.root.1 
/pnfs/desy.de/atlas/dq2/atlaslocalgroupdisk/rucio/mc15_13TeV/24/90/EVNT.08958601._000078.pool.root.1 
/pnfs/desy.de/atlas/dq2/atlaslocalgroupdisk/rucio/mc15_13TeV/96/d1/EVNT.08958601._000079.pool.root.1 
/pnfs/desy.de/atlas/dq2/atlaslocalgroupdisk/rucio/mc15_13TeV/47/9c/EVNT.08958601._000080.pool.root.1 
/pnfs/desy.de/atlas/dq2/atlaslocalgroupdisk/rucio/mc15_13TeV/0e/4a/EVNT.08958601._000081.pool.root.1 
/pnfs/desy.de/atlas/dq2/atlaslocalgroupdisk/rucio/mc15_13TeV/b7/e0/EVNT.08958601._000082.pool.root.1 
/pnfs/desy.de/atlas/dq2/atlaslocalgroupdisk/rucio/mc15_13TeV/22/81/EVNT.08958601._000083.pool.root.1 
/pnfs/desy.de/atlas/dq2/atlaslocalgroupdisk/rucio/mc15_13TeV/1a/cd/EVNT.08958601._000084.pool.root.1 
/pnfs/desy.de/atlas/dq2/atlaslocalgroupdisk/rucio/mc15_13TeV/81/b8/EVNT.08958601._000085.pool.root.1 
/pnfs/desy.de/atlas/dq2/atlaslocalgroupdisk/rucio/mc15_13TeV/42/3d/EVNT.08958601._000086.pool.root.1 
/pnfs/desy.de/atlas/dq2/atlaslocalgroupdisk/rucio/mc15_13TeV/c3/a0/EVNT.08958601._000087.pool.root.1 
/pnfs/desy.de/atlas/dq2/atlaslocalgroupdisk/rucio/mc15_13TeV/b5/c7/EVNT.08958601._000088.pool.root.1 
/pnfs/desy.de/atlas/dq2/atlaslocalgroupdisk/rucio/mc15_13TeV/ba/34/EVNT.08958601._000089.pool.root.1 
/pnfs/desy.de/atlas/dq2/atlaslocalgroupdisk/rucio/mc15_13TeV/7e/89/EVNT.08958601._000090.pool.root.1 
/pnfs/desy.de/atlas/dq2/atlaslocalgroupdisk/rucio/mc15_13TeV/17/59/EVNT.08958601._000091.pool.root.1 
/pnfs/desy.de/atlas/dq2/atlaslocalgroupdisk/rucio/mc15_13TeV/bd/32/EVNT.08958601._000092.pool.root.1 
/pnfs/desy.de/atlas/dq2/atlaslocalgroupdisk/rucio/mc15_13TeV/94/6b/EVNT.08958601._000093.pool.root.1 
/pnfs/desy.de/atlas/dq2/atlaslocalgroupdisk/rucio/mc15_13TeV/77/9d/EVNT.08958601._000094.pool.root.1 
/pnfs/desy.de/atlas/dq2/atlaslocalgroupdisk/rucio/mc15_13TeV/b3/26/EVNT.08958601._000095.pool.root.1 
/pnfs/desy.de/atlas/dq2/atlaslocalgroupdisk/rucio/mc15_13TeV/b4/c4/EVNT.08958601._000096.pool.root.1 
/pnfs/desy.de/atlas/dq2/atlaslocalgroupdisk/rucio/mc15_13TeV/87/cb/EVNT.08958601._000097.pool.root.1 
/pnfs/desy.de/atlas/dq2/atlaslocalgroupdisk/rucio/mc15_13TeV/75/b9/EVNT.08958601._000098.pool.root.1 
/pnfs/desy.de/atlas/dq2/atlaslocalgroupdisk/rucio/mc15_13TeV/01/b1/EVNT.08958601._000099.pool.root.1 
/pnfs/desy.de/atlas/dq2/atlaslocalgroupdisk/rucio/mc15_13TeV/26/41/EVNT.08958601._000100.pool.root.1 
/pnfs/desy.de/atlas/dq2/atlaslocalgroupdisk/rucio/mc15_13TeV/5b/e0/EVNT.08958601._000101.pool.root.1 
/pnfs/desy.de/atlas/dq2/atlaslocalgroupdisk/rucio/mc15_13TeV/48/02/EVNT.08958601._000102.pool.root.1 
/pnfs/desy.de/atlas/dq2/atlaslocalgroupdisk/rucio/mc15_13TeV/a2/58/EVNT.08958601._000103.pool.root.1 
/pnfs/desy.de/atlas/dq2/atlaslocalgroupdisk/rucio/mc15_13TeV/1d/4c/EVNT.08958601._000104.pool.root.1 
/pnfs/desy.de/atlas/dq2/atlaslocalgroupdisk/rucio/mc15_13TeV/32/27/EVNT.08958601._000105.pool.root.1 
/pnfs/desy.de/atlas/dq2/atlaslocalgroupdisk/rucio/mc15_13TeV/0a/e9/EVNT.08958601._000106.pool.root.1 
/pnfs/desy.de/atlas/dq2/atlaslocalgroupdisk/rucio/mc15_13TeV/fa/d7/EVNT.08958601._000107.pool.root.1 
/pnfs/desy.de/atlas/dq2/atlaslocalgroupdisk/rucio/mc15_13TeV/9c/88/EVNT.08958601._000108.pool.root.1 
/pnfs/desy.de/atlas/dq2/atlaslocalgroupdisk/rucio/mc15_13TeV/0f/8c/EVNT.08958601._000109.pool.root.1 
/pnfs/desy.de/atlas/dq2/atlaslocalgroupdisk/rucio/mc15_13TeV/ab/4f/EVNT.08958601._000110.pool.root.1 
/pnfs/desy.de/atlas/dq2/atlaslocalgroupdisk/rucio/mc15_13TeV/ab/d8/EVNT.08958601._000111.pool.root.1 
/pnfs/desy.de/atlas/dq2/atlaslocalgroupdisk/rucio/mc15_13TeV/c4/63/EVNT.08958601._000112.pool.root.1 
/pnfs/desy.de/atlas/dq2/atlaslocalgroupdisk/rucio/mc15_13TeV/74/2f/EVNT.08958601._000113.pool.root.1 
/pnfs/desy.de/atlas/dq2/atlaslocalgroupdisk/rucio/mc15_13TeV/7f/b9/EVNT.08958601._000114.pool.root.1 
/pnfs/desy.de/atlas/dq2/atlaslocalgroupdisk/rucio/mc15_13TeV/ae/e0/EVNT.08958601._000115.pool.root.1 
/pnfs/desy.de/atlas/dq2/atlaslocalgroupdisk/rucio/mc15_13TeV/30/bb/EVNT.08958601._000116.pool.root.1 
/pnfs/desy.de/atlas/dq2/atlaslocalgroupdisk/rucio/mc15_13TeV/36/ef/EVNT.08958601._000117.pool.root.1 
/pnfs/desy.de/atlas/dq2/atlaslocalgroupdisk/rucio/mc15_13TeV/5f/2a/EVNT.08958601._000118.pool.root.1 
/pnfs/desy.de/atlas/dq2/atlaslocalgroupdisk/rucio/mc15_13TeV/05/84/EVNT.08958601._000119.pool.root.1 
/pnfs/desy.de/atlas/dq2/atlaslocalgroupdisk/rucio/mc15_13TeV/f1/ba/EVNT.08958601._000120.pool.root.1 
/pnfs/desy.de/atlas/dq2/atlaslocalgroupdisk/rucio/mc15_13TeV/c4/54/EVNT.08958601._000122.pool.root.1 
/pnfs/desy.de/atlas/dq2/atlaslocalgroupdisk/rucio/mc15_13TeV/e1/eb/EVNT.08958601._000123.pool.root.1 
/pnfs/desy.de/atlas/dq2/atlaslocalgroupdisk/rucio/mc15_13TeV/da/b4/EVNT.08958601._000124.pool.root.1 
/pnfs/desy.de/atlas/dq2/atlaslocalgroupdisk/rucio/mc15_13TeV/3b/55/EVNT.08958601._000125.pool.root.1 
/pnfs/desy.de/atlas/dq2/atlaslocalgroupdisk/rucio/mc15_13TeV/fe/2c/EVNT.08958601._000126.pool.root.1 
/pnfs/desy.de/atlas/dq2/atlaslocalgroupdisk/rucio/mc15_13TeV/f6/b3/EVNT.08958601._000127.pool.root.1 
/pnfs/desy.de/atlas/dq2/atlaslocalgroupdisk/rucio/mc15_13TeV/6d/eb/EVNT.08958601._000128.pool.root.1 
/pnfs/desy.de/atlas/dq2/atlaslocalgroupdisk/rucio/mc15_13TeV/40/96/EVNT.08958601._000129.pool.root.1 
/pnfs/desy.de/atlas/dq2/atlaslocalgroupdisk/rucio/mc15_13TeV/f8/6e/EVNT.08958601._000130.pool.root.1 
/pnfs/desy.de/atlas/dq2/atlaslocalgroupdisk/rucio/mc15_13TeV/6e/91/EVNT.08958601._000131.pool.root.1 
/pnfs/desy.de/atlas/dq2/atlaslocalgroupdisk/rucio/mc15_13TeV/d7/fe/EVNT.08958601._000132.pool.root.1 
/pnfs/desy.de/atlas/dq2/atlaslocalgroupdisk/rucio/mc15_13TeV/92/ab/EVNT.08958601._000134.pool.root.1 
/pnfs/desy.de/atlas/dq2/atlaslocalgroupdisk/rucio/mc15_13TeV/92/b5/EVNT.08958601._000135.pool.root.1 
/pnfs/desy.de/atlas/dq2/atlaslocalgroupdisk/rucio/mc15_13TeV/f7/03/EVNT.08958601._000136.pool.root.1 
/pnfs/desy.de/atlas/dq2/atlaslocalgroupdisk/rucio/mc15_13TeV/80/90/EVNT.08958601._000137.pool.root.1 
/pnfs/desy.de/atlas/dq2/atlaslocalgroupdisk/rucio/mc15_13TeV/b7/65/EVNT.08958601._000138.pool.root.1 
/pnfs/desy.de/atlas/dq2/atlaslocalgroupdisk/rucio/mc15_13TeV/03/94/EVNT.08958601._000139.pool.root.1 
/pnfs/desy.de/atlas/dq2/atlaslocalgroupdisk/rucio/mc15_13TeV/1f/52/EVNT.08958601._000140.pool.root.1 
/pnfs/desy.de/atlas/dq2/atlaslocalgroupdisk/rucio/mc15_13TeV/a5/09/EVNT.08958601._000141.pool.root.1 
/pnfs/desy.de/atlas/dq2/atlaslocalgroupdisk/rucio/mc15_13TeV/c5/7a/EVNT.08958601._000142.pool.root.1 
/pnfs/desy.de/atlas/dq2/atlaslocalgroupdisk/rucio/mc15_13TeV/9e/33/EVNT.08958601._000143.pool.root.1 
/pnfs/desy.de/atlas/dq2/atlaslocalgroupdisk/rucio/mc15_13TeV/52/ce/EVNT.08958601._000144.pool.root.1 
/pnfs/desy.de/atlas/dq2/atlaslocalgroupdisk/rucio/mc15_13TeV/84/a9/EVNT.08958601._000145.pool.root.1 
/pnfs/desy.de/atlas/dq2/atlaslocalgroupdisk/rucio/mc15_13TeV/96/6e/EVNT.08958601._000146.pool.root.1 
/pnfs/desy.de/atlas/dq2/atlaslocalgroupdisk/rucio/mc15_13TeV/2e/5c/EVNT.08958601._000147.pool.root.1 
/pnfs/desy.de/atlas/dq2/atlaslocalgroupdisk/rucio/mc15_13TeV/a4/78/EVNT.08958601._000148.pool.root.1 
/pnfs/desy.de/atlas/dq2/atlaslocalgroupdisk/rucio/mc15_13TeV/58/cb/EVNT.08958601._000149.pool.root.1 
/pnfs/desy.de/atlas/dq2/atlaslocalgroupdisk/rucio/mc15_13TeV/76/f2/EVNT.08958601._000150.pool.root.1 
/pnfs/desy.de/atlas/dq2/atlaslocalgroupdisk/rucio/mc15_13TeV/27/2c/EVNT.08958601._000151.pool.root.1 
/pnfs/desy.de/atlas/dq2/atlaslocalgroupdisk/rucio/mc15_13TeV/a0/c9/EVNT.08958601._000152.pool.root.1 
/pnfs/desy.de/atlas/dq2/atlaslocalgroupdisk/rucio/mc15_13TeV/8f/b8/EVNT.08958601._000153.pool.root.1 
/pnfs/desy.de/atlas/dq2/atlaslocalgroupdisk/rucio/mc15_13TeV/3f/d0/EVNT.08958601._000154.pool.root.1 
/pnfs/desy.de/atlas/dq2/atlaslocalgroupdisk/rucio/mc15_13TeV/73/cb/EVNT.08958601._000155.pool.root.1 
/pnfs/desy.de/atlas/dq2/atlaslocalgroupdisk/rucio/mc15_13TeV/8f/6b/EVNT.08958601._000156.pool.root.1 
/pnfs/desy.de/atlas/dq2/atlaslocalgroupdisk/rucio/mc15_13TeV/de/e5/EVNT.08958601._000157.pool.root.1 
/pnfs/desy.de/atlas/dq2/atlaslocalgroupdisk/rucio/mc15_13TeV/bb/f8/EVNT.08958601._000158.pool.root.1 
/pnfs/desy.de/atlas/dq2/atlaslocalgroupdisk/rucio/mc15_13TeV/82/24/EVNT.08958601._000159.pool.root.1 
/pnfs/desy.de/atlas/dq2/atlaslocalgroupdisk/rucio/mc15_13TeV/cf/03/EVNT.08958601._000160.pool.root.1 
/pnfs/desy.de/atlas/dq2/atlaslocalgroupdisk/rucio/mc15_13TeV/ac/89/EVNT.08958601._000161.pool.root.1 
/pnfs/desy.de/atlas/dq2/atlaslocalgroupdisk/rucio/mc15_13TeV/e3/8d/EVNT.08958601._000162.pool.root.1 
/pnfs/desy.de/atlas/dq2/atlaslocalgroupdisk/rucio/mc15_13TeV/7d/1f/EVNT.08958601._000163.pool.root.1 
/pnfs/desy.de/atlas/dq2/atlaslocalgroupdisk/rucio/mc15_13TeV/9e/3b/EVNT.08958601._000164.pool.root.1 
/pnfs/desy.de/atlas/dq2/atlaslocalgroupdisk/rucio/mc15_13TeV/dd/97/EVNT.08958601._000165.pool.root.1 
/pnfs/desy.de/atlas/dq2/atlaslocalgroupdisk/rucio/mc15_13TeV/90/e2/EVNT.08958601._000166.pool.root.1 
/pnfs/desy.de/atlas/dq2/atlaslocalgroupdisk/rucio/mc15_13TeV/36/12/EVNT.08958601._000167.pool.root.1 
/pnfs/desy.de/atlas/dq2/atlaslocalgroupdisk/rucio/mc15_13TeV/52/2c/EVNT.08958601._000168.pool.root.1 
/pnfs/desy.de/atlas/dq2/atlaslocalgroupdisk/rucio/mc15_13TeV/f8/33/EVNT.08958601._000169.pool.root.1 
/pnfs/desy.de/atlas/dq2/atlaslocalgroupdisk/rucio/mc15_13TeV/a6/b5/EVNT.08958601._000170.pool.root.1 
/pnfs/desy.de/atlas/dq2/atlaslocalgroupdisk/rucio/mc15_13TeV/c6/50/EVNT.08958601._000171.pool.root.1 
/pnfs/desy.de/atlas/dq2/atlaslocalgroupdisk/rucio/mc15_13TeV/e2/03/EVNT.08958601._000172.pool.root.1 
/pnfs/desy.de/atlas/dq2/atlaslocalgroupdisk/rucio/mc15_13TeV/a9/ff/EVNT.08958601._000173.pool.root.1 
/pnfs/desy.de/atlas/dq2/atlaslocalgroupdisk/rucio/mc15_13TeV/38/ac/EVNT.08958601._000174.pool.root.1 
/pnfs/desy.de/atlas/dq2/atlaslocalgroupdisk/rucio/mc15_13TeV/43/4d/EVNT.08958601._000175.pool.root.1 
/pnfs/desy.de/atlas/dq2/atlaslocalgroupdisk/rucio/mc15_13TeV/a4/5e/EVNT.08958601._000176.pool.root.1 
/pnfs/desy.de/atlas/dq2/atlaslocalgroupdisk/rucio/mc15_13TeV/5a/1f/EVNT.08958601._000177.pool.root.1 
/pnfs/desy.de/atlas/dq2/atlaslocalgroupdisk/rucio/mc15_13TeV/dd/e6/EVNT.08958601._000178.pool.root.1 
/pnfs/desy.de/atlas/dq2/atlaslocalgroupdisk/rucio/mc15_13TeV/57/6d/EVNT.08958601._000179.pool.root.1 
/pnfs/desy.de/atlas/dq2/atlaslocalgroupdisk/rucio/mc15_13TeV/7d/10/EVNT.08958601._000180.pool.root.1 
/pnfs/desy.de/atlas/dq2/atlaslocalgroupdisk/rucio/mc15_13TeV/e0/e8/EVNT.08958601._000181.pool.root.1 
/pnfs/desy.de/atlas/dq2/atlaslocalgroupdisk/rucio/mc15_13TeV/cd/28/EVNT.08958601._000182.pool.root.1 
/pnfs/desy.de/atlas/dq2/atlaslocalgroupdisk/rucio/mc15_13TeV/67/25/EVNT.08958601._000183.pool.root.1 
/pnfs/desy.de/atlas/dq2/atlaslocalgroupdisk/rucio/mc15_13TeV/78/23/EVNT.08958601._000184.pool.root.1 
/pnfs/desy.de/atlas/dq2/atlaslocalgroupdisk/rucio/mc15_13TeV/06/80/EVNT.08958601._000185.pool.root.1 
/pnfs/desy.de/atlas/dq2/atlaslocalgroupdisk/rucio/mc15_13TeV/02/dd/EVNT.08958601._000186.pool.root.1 
/pnfs/desy.de/atlas/dq2/atlaslocalgroupdisk/rucio/mc15_13TeV/9d/73/EVNT.08958601._000187.pool.root.1 
/pnfs/desy.de/atlas/dq2/atlaslocalgroupdisk/rucio/mc15_13TeV/1a/89/EVNT.08958601._000188.pool.root.1 
/pnfs/desy.de/atlas/dq2/atlaslocalgroupdisk/rucio/mc15_13TeV/b0/74/EVNT.08958601._000189.pool.root.1 
/pnfs/desy.de/atlas/dq2/atlaslocalgroupdisk/rucio/mc15_13TeV/8c/9a/EVNT.08958601._000190.pool.root.1 
/pnfs/desy.de/atlas/dq2/atlaslocalgroupdisk/rucio/mc15_13TeV/04/7c/EVNT.08958601._000191.pool.root.1 
/pnfs/desy.de/atlas/dq2/atlaslocalgroupdisk/rucio/mc15_13TeV/f1/96/EVNT.08958601._000192.pool.root.1 
/pnfs/desy.de/atlas/dq2/atlaslocalgroupdisk/rucio/mc15_13TeV/e2/34/EVNT.08958601._000193.pool.root.1 
/pnfs/desy.de/atlas/dq2/atlaslocalgroupdisk/rucio/mc15_13TeV/ea/f6/EVNT.08958601._000194.pool.root.1 
/pnfs/desy.de/atlas/dq2/atlaslocalgroupdisk/rucio/mc15_13TeV/b3/07/EVNT.08958601._000195.pool.root.1 
/pnfs/desy.de/atlas/dq2/atlaslocalgroupdisk/rucio/mc15_13TeV/c4/b2/EVNT.08958601._000196.pool.root.1 
/pnfs/desy.de/atlas/dq2/atlaslocalgroupdisk/rucio/mc15_13TeV/b6/06/EVNT.08958601._000197.pool.root.1 
/pnfs/desy.de/atlas/dq2/atlaslocalgroupdisk/rucio/mc15_13TeV/04/e5/EVNT.08958601._000198.pool.root.1 
/pnfs/desy.de/atlas/dq2/atlaslocalgroupdisk/rucio/mc15_13TeV/2a/ea/EVNT.08958601._000199.pool.root.1 
/pnfs/desy.de/atlas/dq2/atlaslocalgroupdisk/rucio/mc15_13TeV/b9/88/EVNT.08958601._000200.pool.root.1 
/pnfs/desy.de/atlas/dq2/atlaslocalgroupdisk/rucio/mc15_13TeV/78/6d/EVNT.08958601._000201.pool.root.1 
/pnfs/desy.de/atlas/dq2/atlaslocalgroupdisk/rucio/mc15_13TeV/7f/99/EVNT.08958601._000202.pool.root.1 
/pnfs/desy.de/atlas/dq2/atlaslocalgroupdisk/rucio/mc15_13TeV/d2/75/EVNT.08958601._000203.pool.root.1 
/pnfs/desy.de/atlas/dq2/atlaslocalgroupdisk/rucio/mc15_13TeV/6a/a2/EVNT.08958601._000204.pool.root.1 
/pnfs/desy.de/atlas/dq2/atlaslocalgroupdisk/rucio/mc15_13TeV/34/24/EVNT.08958601._000205.pool.root.1 
/pnfs/desy.de/atlas/dq2/atlaslocalgroupdisk/rucio/mc15_13TeV/8c/a0/EVNT.08958601._000206.pool.root.1 
/pnfs/desy.de/atlas/dq2/atlaslocalgroupdisk/rucio/mc15_13TeV/e3/2e/EVNT.08958601._000207.pool.root.1 
/pnfs/desy.de/atlas/dq2/atlaslocalgroupdisk/rucio/mc15_13TeV/26/ed/EVNT.08958601._000209.pool.root.1 
/pnfs/desy.de/atlas/dq2/atlaslocalgroupdisk/rucio/mc15_13TeV/b6/3d/EVNT.08958601._000210.pool.root.1 
/pnfs/desy.de/atlas/dq2/atlaslocalgroupdisk/rucio/mc15_13TeV/4d/7b/EVNT.08958601._000213.pool.root.1 
/pnfs/desy.de/atlas/dq2/atlaslocalgroupdisk/rucio/mc15_13TeV/fa/a4/EVNT.08958601._000215.pool.root.1 
/pnfs/desy.de/atlas/dq2/atlaslocalgroupdisk/rucio/mc15_13TeV/3c/9d/EVNT.08958601._000216.pool.root.1 
/pnfs/desy.de/atlas/dq2/atlaslocalgroupdisk/rucio/mc15_13TeV/0f/39/EVNT.08958601._000218.pool.root.1 
/pnfs/desy.de/atlas/dq2/atlaslocalgroupdisk/rucio/mc15_13TeV/17/fe/EVNT.08958601._000219.pool.root.1 
/pnfs/desy.de/atlas/dq2/atlaslocalgroupdisk/rucio/mc15_13TeV/ca/c0/EVNT.08958601._000220.pool.root.1 
/pnfs/desy.de/atlas/dq2/atlaslocalgroupdisk/rucio/mc15_13TeV/1f/cd/EVNT.08958601._000221.pool.root.1 
/pnfs/desy.de/atlas/dq2/atlaslocalgroupdisk/rucio/mc15_13TeV/1d/b1/EVNT.08958601._000222.pool.root.1 
/pnfs/desy.de/atlas/dq2/atlaslocalgroupdisk/rucio/mc15_13TeV/12/02/EVNT.08958601._000225.pool.root.1 
/pnfs/desy.de/atlas/dq2/atlaslocalgroupdisk/rucio/mc15_13TeV/0e/53/EVNT.08958601._000229.pool.root.1 
/pnfs/desy.de/atlas/dq2/atlaslocalgroupdisk/rucio/mc15_13TeV/1c/0f/EVNT.08958601._000231.pool.root.1 
/pnfs/desy.de/atlas/dq2/atlaslocalgroupdisk/rucio/mc15_13TeV/c2/36/EVNT.08958601._000232.pool.root.1 
/pnfs/desy.de/atlas/dq2/atlaslocalgroupdisk/rucio/mc15_13TeV/66/b2/EVNT.08958601._000233.pool.root.1 
/pnfs/desy.de/atlas/dq2/atlaslocalgroupdisk/rucio/mc15_13TeV/72/ca/EVNT.08958601._000234.pool.root.1 
/pnfs/desy.de/atlas/dq2/atlaslocalgroupdisk/rucio/mc15_13TeV/64/27/EVNT.08958601._000236.pool.root.1 
/pnfs/desy.de/atlas/dq2/atlaslocalgroupdisk/rucio/mc15_13TeV/c9/91/EVNT.08958601._000237.pool.root.1 
/pnfs/desy.de/atlas/dq2/atlaslocalgroupdisk/rucio/mc15_13TeV/ab/69/EVNT.08958601._000238.pool.root.1 
/pnfs/desy.de/atlas/dq2/atlaslocalgroupdisk/rucio/mc15_13TeV/7d/34/EVNT.08958601._000239.pool.root.1 
/pnfs/desy.de/atlas/dq2/atlaslocalgroupdisk/rucio/mc15_13TeV/1a/8e/EVNT.08958601._000240.pool.root.1 
/pnfs/desy.de/atlas/dq2/atlaslocalgroupdisk/rucio/mc15_13TeV/a1/cb/EVNT.08958601._000241.pool.root.1 
/pnfs/desy.de/atlas/dq2/atlaslocalgroupdisk/rucio/mc15_13TeV/02/a8/EVNT.08958601._000242.pool.root.1 
/pnfs/desy.de/atlas/dq2/atlaslocalgroupdisk/rucio/mc15_13TeV/81/70/EVNT.08958601._000243.pool.root.1 
/pnfs/desy.de/atlas/dq2/atlaslocalgroupdisk/rucio/mc15_13TeV/41/22/EVNT.08958601._000245.pool.root.1 
/pnfs/desy.de/atlas/dq2/atlaslocalgroupdisk/rucio/mc15_13TeV/ff/23/EVNT.08958601._000246.pool.root.1 
/pnfs/desy.de/atlas/dq2/atlaslocalgroupdisk/rucio/mc15_13TeV/dd/e9/EVNT.08958601._000247.pool.root.1 
/pnfs/desy.de/atlas/dq2/atlaslocalgroupdisk/rucio/mc15_13TeV/48/d4/EVNT.08958601._000248.pool.root.1 
/pnfs/desy.de/atlas/dq2/atlaslocalgroupdisk/rucio/mc15_13TeV/ca/45/EVNT.08958601._000249.pool.root.1 
/pnfs/desy.de/atlas/dq2/atlaslocalgroupdisk/rucio/mc15_13TeV/62/aa/EVNT.08958601._000250.pool.root.1 
/pnfs/desy.de/atlas/dq2/atlaslocalgroupdisk/rucio/mc15_13TeV/95/5d/EVNT.08958601._000251.pool.root.1 
/pnfs/desy.de/atlas/dq2/atlaslocalgroupdisk/rucio/mc15_13TeV/37/95/EVNT.08958601._000252.pool.root.1 
/pnfs/desy.de/atlas/dq2/atlaslocalgroupdisk/rucio/mc15_13TeV/9d/1a/EVNT.08958601._000253.pool.root.1 
/pnfs/desy.de/atlas/dq2/atlaslocalgroupdisk/rucio/mc15_13TeV/a0/32/EVNT.08958601._000254.pool.root.1 
/pnfs/desy.de/atlas/dq2/atlaslocalgroupdisk/rucio/mc15_13TeV/c3/3c/EVNT.08958601._000255.pool.root.1 
/pnfs/desy.de/atlas/dq2/atlaslocalgroupdisk/rucio/mc15_13TeV/db/07/EVNT.08958601._000256.pool.root.1 
/pnfs/desy.de/atlas/dq2/atlaslocalgroupdisk/rucio/mc15_13TeV/4f/18/EVNT.08958601._000257.pool.root.1 
/pnfs/desy.de/atlas/dq2/atlaslocalgroupdisk/rucio/mc15_13TeV/7e/de/EVNT.08958601._000258.pool.root.1 
/pnfs/desy.de/atlas/dq2/atlaslocalgroupdisk/rucio/mc15_13TeV/f0/99/EVNT.08958601._000259.pool.root.1 
/pnfs/desy.de/atlas/dq2/atlaslocalgroupdisk/rucio/mc15_13TeV/ee/7d/EVNT.08958601._000260.pool.root.1 
/pnfs/desy.de/atlas/dq2/atlaslocalgroupdisk/rucio/mc15_13TeV/06/6f/EVNT.08958601._000261.pool.root.1 
/pnfs/desy.de/atlas/dq2/atlaslocalgroupdisk/rucio/mc15_13TeV/82/a6/EVNT.08958601._000262.pool.root.1 
/pnfs/desy.de/atlas/dq2/atlaslocalgroupdisk/rucio/mc15_13TeV/92/4a/EVNT.08958601._000263.pool.root.1 
/pnfs/desy.de/atlas/dq2/atlaslocalgroupdisk/rucio/mc15_13TeV/fc/88/EVNT.08958601._000264.pool.root.1 
/pnfs/desy.de/atlas/dq2/atlaslocalgroupdisk/rucio/mc15_13TeV/00/18/EVNT.08958601._000266.pool.root.1 
/pnfs/desy.de/atlas/dq2/atlaslocalgroupdisk/rucio/mc15_13TeV/c3/a0/EVNT.08958601._000267.pool.root.1 
/pnfs/desy.de/atlas/dq2/atlaslocalgroupdisk/rucio/mc15_13TeV/04/34/EVNT.08958601._000268.pool.root.1 
/pnfs/desy.de/atlas/dq2/atlaslocalgroupdisk/rucio/mc15_13TeV/0e/be/EVNT.08958601._000269.pool.root.1 
/pnfs/desy.de/atlas/dq2/atlaslocalgroupdisk/rucio/mc15_13TeV/3e/e8/EVNT.08958601._000270.pool.root.1 
/pnfs/desy.de/atlas/dq2/atlaslocalgroupdisk/rucio/mc15_13TeV/a8/95/EVNT.08958601._000271.pool.root.1 
/pnfs/desy.de/atlas/dq2/atlaslocalgroupdisk/rucio/mc15_13TeV/2d/13/EVNT.08958601._000272.pool.root.1 
/pnfs/desy.de/atlas/dq2/atlaslocalgroupdisk/rucio/mc15_13TeV/23/86/EVNT.08958601._000273.pool.root.1 
/pnfs/desy.de/atlas/dq2/atlaslocalgroupdisk/rucio/mc15_13TeV/33/f3/EVNT.08958601._000274.pool.root.1 
/pnfs/desy.de/atlas/dq2/atlaslocalgroupdisk/rucio/mc15_13TeV/f3/ba/EVNT.08958601._000275.pool.root.1 
/pnfs/desy.de/atlas/dq2/atlaslocalgroupdisk/rucio/mc15_13TeV/ef/78/EVNT.08958601._000276.pool.root.1 
/pnfs/desy.de/atlas/dq2/atlaslocalgroupdisk/rucio/mc15_13TeV/ad/c2/EVNT.08958601._000277.pool.root.1 
/pnfs/desy.de/atlas/dq2/atlaslocalgroupdisk/rucio/mc15_13TeV/5b/84/EVNT.08958601._000278.pool.root.1 
/pnfs/desy.de/atlas/dq2/atlaslocalgroupdisk/rucio/mc15_13TeV/e9/be/EVNT.08958601._000279.pool.root.1 
/pnfs/desy.de/atlas/dq2/atlaslocalgroupdisk/rucio/mc15_13TeV/59/a2/EVNT.08958601._000280.pool.root.1 
/pnfs/desy.de/atlas/dq2/atlaslocalgroupdisk/rucio/mc15_13TeV/89/99/EVNT.08958601._000281.pool.root.1 
/pnfs/desy.de/atlas/dq2/atlaslocalgroupdisk/rucio/mc15_13TeV/7d/1e/EVNT.08958601._000282.pool.root.1 
/pnfs/desy.de/atlas/dq2/atlaslocalgroupdisk/rucio/mc15_13TeV/98/79/EVNT.08958601._000283.pool.root.1 
/pnfs/desy.de/atlas/dq2/atlaslocalgroupdisk/rucio/mc15_13TeV/7e/9f/EVNT.08958601._000284.pool.root.1 
/pnfs/desy.de/atlas/dq2/atlaslocalgroupdisk/rucio/mc15_13TeV/3f/29/EVNT.08958601._000285.pool.root.1 
/pnfs/desy.de/atlas/dq2/atlaslocalgroupdisk/rucio/mc15_13TeV/81/2f/EVNT.08958601._000286.pool.root.1 
/pnfs/desy.de/atlas/dq2/atlaslocalgroupdisk/rucio/mc15_13TeV/e6/e5/EVNT.08958601._000287.pool.root.1 
/pnfs/desy.de/atlas/dq2/atlaslocalgroupdisk/rucio/mc15_13TeV/01/05/EVNT.08958601._000288.pool.root.1 
/pnfs/desy.de/atlas/dq2/atlaslocalgroupdisk/rucio/mc15_13TeV/aa/e5/EVNT.08958601._000289.pool.root.1 
/pnfs/desy.de/atlas/dq2/atlaslocalgroupdisk/rucio/mc15_13TeV/f3/fa/EVNT.08958601._000290.pool.root.1 
/pnfs/desy.de/atlas/dq2/atlaslocalgroupdisk/rucio/mc15_13TeV/a1/fe/EVNT.08958601._000291.pool.root.1 
/pnfs/desy.de/atlas/dq2/atlaslocalgroupdisk/rucio/mc15_13TeV/a9/7f/EVNT.08958601._000292.pool.root.1 
/pnfs/desy.de/atlas/dq2/atlaslocalgroupdisk/rucio/mc15_13TeV/04/ed/EVNT.08958601._000293.pool.root.1 
/pnfs/desy.de/atlas/dq2/atlaslocalgroupdisk/rucio/mc15_13TeV/86/90/EVNT.08958601._000294.pool.root.1 
/pnfs/desy.de/atlas/dq2/atlaslocalgroupdisk/rucio/mc15_13TeV/e4/b6/EVNT.08958601._000295.pool.root.1 
/pnfs/desy.de/atlas/dq2/atlaslocalgroupdisk/rucio/mc15_13TeV/5c/f9/EVNT.08958601._000296.pool.root.1 
/pnfs/desy.de/atlas/dq2/atlaslocalgroupdisk/rucio/mc15_13TeV/87/ab/EVNT.08958601._000297.pool.root.1 
/pnfs/desy.de/atlas/dq2/atlaslocalgroupdisk/rucio/mc15_13TeV/ea/de/EVNT.08958601._000298.pool.root.1 
/pnfs/desy.de/atlas/dq2/atlaslocalgroupdisk/rucio/mc15_13TeV/63/91/EVNT.08958601._000299.pool.root.1 
/pnfs/desy.de/atlas/dq2/atlaslocalgroupdisk/rucio/mc15_13TeV/42/4e/EVNT.08958601._000300.pool.root.1 
/pnfs/desy.de/atlas/dq2/atlaslocalgroupdisk/rucio/mc15_13TeV/d7/b0/EVNT.08958601._000301.pool.root.1 
/pnfs/desy.de/atlas/dq2/atlaslocalgroupdisk/rucio/mc15_13TeV/54/5b/EVNT.08958601._000302.pool.root.1 
/pnfs/desy.de/atlas/dq2/atlaslocalgroupdisk/rucio/mc15_13TeV/3f/b9/EVNT.08958601._000303.pool.root.1 
/pnfs/desy.de/atlas/dq2/atlaslocalgroupdisk/rucio/mc15_13TeV/25/72/EVNT.08958601._000304.pool.root.1 
/pnfs/desy.de/atlas/dq2/atlaslocalgroupdisk/rucio/mc15_13TeV/17/b7/EVNT.08958601._000305.pool.root.1 
/pnfs/desy.de/atlas/dq2/atlaslocalgroupdisk/rucio/mc15_13TeV/27/d6/EVNT.08958601._000306.pool.root.1 
/pnfs/desy.de/atlas/dq2/atlaslocalgroupdisk/rucio/mc15_13TeV/fc/86/EVNT.08958601._000307.pool.root.1 
/pnfs/desy.de/atlas/dq2/atlaslocalgroupdisk/rucio/mc15_13TeV/c8/ef/EVNT.08958601._000309.pool.root.1 
/pnfs/desy.de/atlas/dq2/atlaslocalgroupdisk/rucio/mc15_13TeV/30/d4/EVNT.08958601._000310.pool.root.1 
/pnfs/desy.de/atlas/dq2/atlaslocalgroupdisk/rucio/mc15_13TeV/9c/8e/EVNT.08958601._000311.pool.root.1 
/pnfs/desy.de/atlas/dq2/atlaslocalgroupdisk/rucio/mc15_13TeV/7a/b4/EVNT.08958601._000312.pool.root.1 
/pnfs/desy.de/atlas/dq2/atlaslocalgroupdisk/rucio/mc15_13TeV/2c/ed/EVNT.08958601._000313.pool.root.1 
/pnfs/desy.de/atlas/dq2/atlaslocalgroupdisk/rucio/mc15_13TeV/b5/49/EVNT.08958601._000314.pool.root.1 
/pnfs/desy.de/atlas/dq2/atlaslocalgroupdisk/rucio/mc15_13TeV/45/66/EVNT.08958601._000315.pool.root.1 
/pnfs/desy.de/atlas/dq2/atlaslocalgroupdisk/rucio/mc15_13TeV/62/86/EVNT.08958601._000316.pool.root.1 
/pnfs/desy.de/atlas/dq2/atlaslocalgroupdisk/rucio/mc15_13TeV/78/be/EVNT.08958601._000317.pool.root.1 
/pnfs/desy.de/atlas/dq2/atlaslocalgroupdisk/rucio/mc15_13TeV/d2/11/EVNT.08958601._000318.pool.root.1 
